<?xml version="1.0" encoding="utf-8"?>
<!-- Generator: Adobe Illustrator 21.1.0, SVG Export Plug-In . SVG Version: 6.00 Build 0)  -->
<svg version="1.1" id="Слой_1" xmlns="http://www.w3.org/2000/svg" xmlns:xlink="http://www.w3.org/1999/xlink" x="0px" y="0px"
	 viewBox="-281 404.9 32 32" style="enable-background:new -281 404.9 32 32;" xml:space="preserve">
<style type="text/css">
	.st0{fill:#121313;}
</style>
<g id="Menu_1_">
	<path class="st0" d="M-280,414.9h30c0.6,0,1-0.4,1-1c0-0.6-0.4-1-1-1h-30c-0.6,0-1,0.4-1,1C-281,414.4-280.6,414.9-280,414.9z"/>
	<path class="st0" d="M-250,419.9h-30c-0.6,0-1,0.4-1,1c0,0.6,0.4,1,1,1h30c0.6,0,1-0.4,1-1C-249,420.3-249.4,419.9-250,419.9z"/>
	<path class="st0" d="M-250,426.9h-20c-0.6,0-1,0.4-1,1c0,0.6,0.4,1,1,1h20c0.6,0,1-0.4,1-1C-249,427.3-249.4,426.9-250,426.9z"/>
</g>
</svg>
