<?xml version="1.0" encoding="utf-8"?>
<!-- Generator: Adobe Illustrator 21.1.0, SVG Export Plug-In . SVG Version: 6.00 Build 0)  -->
<svg version="1.1" id="Layer_1" xmlns="http://www.w3.org/2000/svg" xmlns:xlink="http://www.w3.org/1999/xlink" x="0px" y="0px"
	 viewBox="-273 396.9 48 48" style="enable-background:new -273 396.9 48 48;" xml:space="preserve">
<path d="M-241.5,425.4h-1.6l-0.6-0.6c2-2.3,3.1-5.2,3.1-8.4c0-7.2-5.8-13-13-13s-13,5.8-13,13s5.8,13,13,13c3.2,0,6.2-1.2,8.5-3.1
	l0.5,0.5v1.6l10,10l3-3L-241.5,425.4z M-253.5,425.4c-5,0-9-4-9-9s4-9,9-9c5,0,9,4,9,9S-248.5,425.4-253.5,425.4z"/>
</svg>
