<?xml version="1.0" standalone="no"?>
<!DOCTYPE svg PUBLIC "-//W3C//DTD SVG 1.1//EN" "http://www.w3.org/Graphics/SVG/1.1/DTD/svg11.dtd" >
<svg xmlns="http://www.w3.org/2000/svg">
<metadata>Generated by IcoMoon</metadata>
<defs>
<font id="icomoon" horiz-adv-x="1024">
<font-face units-per-em="1024" ascent="960" descent="-64" />
<missing-glyph horiz-adv-x="1024" />
<glyph unicode="&#x20;" horiz-adv-x="512" d="" />
<glyph unicode="&#xe900;" glyph-name="flag" d="M886.4 691.2c-12.8 12.8-32 12.8-44.8 0l-457.6-454.4-201.6 198.4c-12.8 12.8-32 12.8-44.8 0s-12.8-32 0-44.8l224-220.8c12.8-12.8 32-12.8 44.8 0l480 476.8c12.8 12.8 12.8 32 0 44.8s12.8-12.8 0 0z" />
<glyph unicode="&#xe901;" glyph-name="icon-bar" d="M32 640h960c19.2 0 32 12.8 32 32s-12.8 32-32 32h-960c-19.2 0-32-12.8-32-32 0-16 12.8-32 32-32zM992 480h-960c-19.2 0-32-12.8-32-32s12.8-32 32-32h960c19.2 0 32 12.8 32 32s-12.8 32-32 32zM992 256h-640c-19.2 0-32-12.8-32-32s12.8-32 32-32h640c19.2 0 32 12.8 32 32s-12.8 32-32 32z" />
<glyph unicode="&#xe902;" glyph-name="loop" d="M672 352h-34.133l-12.8 12.8c42.667 49.067 66.133 110.933 66.133 179.2 0 153.6-123.733 277.333-277.333 277.333s-277.333-123.733-277.333-277.333 123.733-277.333 277.333-277.333c68.267 0 132.267 25.6 181.333 66.133l10.667-10.667v-34.133l213.333-213.333 64 64-211.2 213.333zM416 352c-106.667 0-192 85.333-192 192s85.333 192 192 192c106.667 0 192-85.333 192-192s-85.333-192-192-192z" />
<glyph unicode="&#xe903;" glyph-name="mail" d="M804.864 185.856h-600.064c-35.84 0-64.512 31.744-64.512 70.656v368.64c0 38.912 28.672 70.656 64.512 70.656h600.064c35.84 0 64.512-31.744 64.512-70.656v-368.64c0-37.888-28.672-70.656-64.512-70.656zM204.8 633.344c-7.168 0-12.288-5.12-12.288-8.192v-368.64c0-3.072 4.096-8.192 12.288-8.192h600.064c7.168 0 12.288 5.12 12.288 8.192v368.64c0 3.072-4.096 8.192-12.288 8.192h-600.064zM829.44 646.656l-325.632-189.44-318.464 189.44-35.84-47.104 354.304-210.944 360.448 209.92z" />
<glyph unicode="&#xe904;" glyph-name="map" d="M512 800c-160 0-288-131.2-288-291.2 0-76.8 32-153.6 83.2-204.8l204.8-204.8 204.8 204.8c48 51.2 83.2 128 83.2 204.8 0 160-128 288-288 291.2zM672 345.6l-160-160-160 160c-41.6 44.8-64 105.6-64 160 0 124.8 99.2 224 224 227.2 124.8 0 224-102.4 224-227.2 0-54.4-25.6-115.2-64-160zM512 640c-70.4 0-131.2-57.6-131.2-131.2s57.6-131.2 131.2-131.2 131.2 57.6 131.2 131.2c0 73.6-60.8 131.2-131.2 131.2zM512 444.8c-35.2 0-67.2 28.8-67.2 67.2 0 35.2 28.8 67.2 67.2 67.2s67.2-28.8 67.2-67.2c0-38.4-32-67.2-67.2-67.2z" />
<glyph unicode="&#xe905;" glyph-name="tel" d="M682.667 917.333h-298.667c0 0-85.333 0-85.333-85.333v-768c0-85.333 85.333-85.333 85.333-85.333h298.667c0 0 85.333 0 85.333 85.333v768c0 85.333-85.333 85.333-85.333 85.333zM469.333 866.133c0 4.267 4.267 8.533 4.267 8.533h115.2c4.267 0 4.267-4.267 4.267-8.533v-4.267c0-4.267-4.267-8.533-4.267-8.533h-115.2c0 0-4.267 4.267-4.267 12.8v0zM533.333 12.8c-25.6 0-42.667 17.067-42.667 42.667s17.067 42.667 42.667 42.667c25.6 0 42.667-17.067 42.667-42.667s-17.067-42.667-42.667-42.667zM725.333 128h-384v682.667h384v-682.667z" />
<glyph unicode="&#xe906;" glyph-name="time" d="M512 917.333c-259.2 0-469.333-210.133-469.333-469.333s210.133-469.333 469.333-469.333c259.2 0 469.333 210.133 469.333 469.333s-210.133 469.333-469.333 469.333zM512 64c-212.267 0-384 171.733-384 384s171.733 384 384 384 384-171.733 384-384c0-212.267-171.733-384-384-384zM554.667 466.133v237.867c0 23.467-19.2 42.667-42.667 42.667s-42.667-19.2-42.667-42.667v-256c0 0 0 0 0 0 0-3.2 0-5.333 1.067-8.533 0-1.067 1.067-2.133 1.067-4.267 0-1.067 1.067-3.2 1.067-4.267 1.067-1.067 1.067-3.2 2.133-4.267s1.067-2.133 2.133-3.2 3.2-4.267 5.333-6.4l120.533-120.533c17.067-17.067 43.733-17.067 60.8 0s17.067 43.733 0 60.8l-108.8 108.8z" />
</font></defs></svg>